{
  "annotations": {
    "list": [
      {
        "builtIn": 1,
        "datasource": {
          "type": "grafana",
          "uid": "-- Grafana --"
        },
        "enable": true,
        "hide": true,
        "iconColor": "rgba(0, 211, 255, 1)",
        "name": "Annotations & Alerts",
        "target": {
          "limit": 100,
          "matchAny": false,
          "tags": [],
          "type": "dashboard"
        },
        "type": "dashboard"
      }
    ]
  },
  "editable": true,
  "fiscalYearStartMonth": 0,
  "graphTooltip": 0,
  "id": 5393,
  "links": [],
  "liveNow": false,
  "panels": [
    {
      "datasource": {
        "type": "influxdb",
        "uid": "000009465"
      },
      "description": "",
      "gridPos": {
        "h": 3,
        "w": 24,
        "x": 0,
        "y": 0
      },
      "id": 32,
      "libraryPanel": {
        "description": "",
        "meta": {
          "connectedDashboards": 2,
          "created": "2023-02-08T16:56:49+01:00",
          "createdBy": {
            "avatarUrl": "/avatar/531f4256a08c061ed58f7aec092287f7",
            "id": 7688,
            "name": "ewoud.rob.l.ketele@cern.ch"
          },
          "folderName": "Shifter Overview",
          "folderUid": "RQzTHUAVz",
          "updated": "2023-02-08T16:56:49+01:00",
          "updatedBy": {
            "avatarUrl": "/avatar/531f4256a08c061ed58f7aec092287f7",
            "id": 7688,
            "name": "ewoud.rob.l.ketele@cern.ch"
          }
        },
        "name": "Notes",
        "type": "text",
        "uid": "2k77BX04k",
        "version": 1
      },
      "options": {
        "content": "# Notes\n\nInvestigate time difference between dirac and grafana ->\n'Last 26 hours' delta in grafana recreates view from dirac",
        "mode": "markdown"
      },
      "pluginVersion": "8.5.21",
      "type": "text"
    },
    {
      "datasource": {
        "type": "mysql",
        "uid": "VGpHWV5Vk"
      },
      "fieldConfig": {
        "defaults": {
          "color": {
            "mode": "palette-classic"
          },
          "custom": {
            "axisLabel": "Jobs/hour",
            "axisPlacement": "auto",
            "barAlignment": 0,
            "drawStyle": "line",
            "fillOpacity": 20,
            "gradientMode": "none",
            "hideFrom": {
              "legend": false,
              "tooltip": false,
              "viz": false
            },
            "lineInterpolation": "linear",
            "lineWidth": 1,
            "pointSize": 5,
            "scaleDistribution": {
              "type": "linear"
            },
            "showPoints": "auto",
            "spanNulls": false,
            "stacking": {
              "group": "A",
              "mode": "normal"
            },
            "thresholdsStyle": {
              "mode": "off"
            }
          },
          "mappings": [],
          "thresholds": {
            "mode": "absolute",
            "steps": [
              {
                "color": "green",
                "value": null
              },
              {
                "color": "red",
                "value": 80
              }
            ]
          },
          "unit": "si:"
        },
        "overrides": []
      },
      "gridPos": {
        "h": 12,
        "w": 8,
        "x": 0,
        "y": 3
      },
      "id": 18,
      "options": {
        "legend": {
          "calcs": [
            "max",
            "mean",
            "sum"
          ],
          "displayMode": "table",
          "placement": "bottom",
          "sortBy": "Total",
          "sortDesc": true
        },
        "tooltip": {
          "mode": "multi",
          "sort": "desc"
        }
      },
      "targets": [
        {
          "datasource": {
            "type": "mysql",
            "uid": "VGpHWV5Vk"
          },
          "format": "time_series",
          "group": [],
          "hide": false,
          "metricColumn": "none",
          "rawQuery": true,
          "rawSql": "SELECT\n`ac_key_LHCb-Production_Job_FinalMinorStatus`.`value`,\n`ac_bucket_LHCb-Production_Job`.`startTime` AS time,\n-- `ac_bucket_LHCb-Production_Job`.`bucketLength`,\nSUM(`ac_bucket_LHCb-Production_Job`.`entriesInBucket`) / `ac_bucket_LHCb-Production_Job`.`bucketLength` * 3600 AS metric\nFROM\n`ac_bucket_LHCb-Production_Job`,\n`ac_key_LHCb-Production_Job_FinalMajorStatus`,\n`ac_key_LHCb-Production_Job_FinalMinorStatus`\nWHERE $__unixEpochFilter(startTime)\n-- AND `ac_bucket_LHCb-Production_Job`.`startTime` <= 1675868400\nAND ( `ac_key_LHCb-Production_Job_FinalMajorStatus`.`value` = \"Failed\" )\nAND `ac_bucket_LHCb-Production_Job`.`FinalMinorStatus` = `ac_key_LHCb-Production_Job_FinalMinorStatus`.`id`\nAND `ac_bucket_LHCb-Production_Job`.`FinalMajorStatus` = `ac_key_LHCb-Production_Job_FinalMajorStatus`.`id`\nGROUP BY\ntime,\n`ac_key_LHCb-Production_Job_FinalMinorStatus`.Value,\nbucketlength",
          "refId": "A",
          "select": [
            [
              {
                "params": [
                  "endTime"
                ],
                "type": "column"
              }
            ]
          ],
          "table": "ac_in_LHCb-Production_DataOperation",
          "timeColumn": "takenSince",
          "timeColumnType": "timestamp",
          "where": [
            {
              "name": "$__timeFilter",
              "params": [],
              "type": "macro"
            }
          ]
        }
      ],
      "title": "Failed Jobs By Final Minor Status",
      "transformations": [
        {
          "id": "renameByRegex",
          "options": {
            "regex": "metric ",
            "renamePattern": ""
          }
        }
      ],
      "type": "timeseries"
    },
    {
      "datasource": {
        "type": "mysql",
        "uid": "VGpHWV5Vk"
      },
      "fieldConfig": {
        "defaults": {
          "color": {
            "mode": "palette-classic"
          },
          "custom": {
            "axisLabel": "Jobs/hour",
            "axisPlacement": "auto",
            "barAlignment": 0,
            "drawStyle": "line",
            "fillOpacity": 20,
            "gradientMode": "none",
            "hideFrom": {
              "legend": false,
              "tooltip": false,
              "viz": false
            },
            "lineInterpolation": "linear",
            "lineWidth": 1,
            "pointSize": 5,
            "scaleDistribution": {
              "type": "linear"
            },
            "showPoints": "auto",
            "spanNulls": false,
            "stacking": {
              "group": "A",
              "mode": "normal"
            },
            "thresholdsStyle": {
              "mode": "off"
            }
          },
          "mappings": [],
          "thresholds": {
            "mode": "absolute",
            "steps": [
              {
                "color": "green",
                "value": null
              },
              {
                "color": "red",
                "value": 80
              }
            ]
          },
          "unit": "si:"
        },
        "overrides": []
      },
      "gridPos": {
        "h": 12,
        "w": 8,
        "x": 8,
        "y": 3
      },
      "id": 8,
      "options": {
        "legend": {
          "calcs": [
            "max",
            "mean",
            "sum"
          ],
          "displayMode": "table",
          "placement": "bottom"
        },
        "tooltip": {
          "mode": "multi",
          "sort": "desc"
        }
      },
      "targets": [
        {
          "datasource": {
            "type": "mysql",
            "uid": "VGpHWV5Vk"
          },
          "format": "time_series",
          "group": [],
          "hide": false,
          "metricColumn": "none",
          "rawQuery": true,
          "rawSql": "SELECT\n`ac_key_LHCb-Production_Job_FinalMinorStatus`.`value`,\n`ac_bucket_LHCb-Production_Job`.`startTime` AS time,\n-- `ac_bucket_LHCb-Production_Job`.`bucketLength`,\nSUM(`ac_bucket_LHCb-Production_Job`.`entriesInBucket`) / `ac_bucket_LHCb-Production_Job`.`bucketLength` * 3600 AS metric\nFROM\n`ac_bucket_LHCb-Production_Job`,\n`ac_key_LHCb-Production_Job_FinalMajorStatus`,\n`ac_key_LHCb-Production_Job_FinalMinorStatus`\nWHERE $__unixEpochFilter(startTime)\n-- AND `ac_bucket_LHCb-Production_Job`.`startTime` <= 1675868400\nAND ( `ac_key_LHCb-Production_Job_FinalMajorStatus`.`value` = \"Completed\" )\nAND `ac_bucket_LHCb-Production_Job`.`FinalMinorStatus` = `ac_key_LHCb-Production_Job_FinalMinorStatus`.`id`\nAND `ac_bucket_LHCb-Production_Job`.`FinalMajorStatus` = `ac_key_LHCb-Production_Job_FinalMajorStatus`.`id`\nGROUP BY\ntime,\n`ac_key_LHCb-Production_Job_FinalMinorStatus`.Value,\nbucketlength",
          "refId": "A",
          "select": [
            [
              {
                "params": [
                  "endTime"
                ],
                "type": "column"
              }
            ]
          ],
          "table": "ac_in_LHCb-Production_DataOperation",
          "timeColumn": "takenSince",
          "timeColumnType": "timestamp",
          "where": [
            {
              "name": "$__timeFilter",
              "params": [],
              "type": "macro"
            }
          ]
        }
      ],
      "title": "Completed Jobs By Final Minor Status",
      "transformations": [
        {
          "id": "renameByRegex",
          "options": {
            "regex": "metric ",
            "renamePattern": ""
          }
        }
      ],
      "type": "timeseries"
    },
    {
      "datasource": {
        "type": "mysql",
        "uid": "VGpHWV5Vk"
      },
      "fieldConfig": {
        "defaults": {
          "color": {
            "mode": "palette-classic"
          },
          "custom": {
            "axisLabel": "Jobs/hour",
            "axisPlacement": "auto",
            "barAlignment": 0,
            "drawStyle": "line",
            "fillOpacity": 20,
            "gradientMode": "none",
            "hideFrom": {
              "legend": false,
              "tooltip": false,
              "viz": false
            },
            "lineInterpolation": "linear",
            "lineWidth": 1,
            "pointSize": 5,
            "scaleDistribution": {
              "type": "linear"
            },
            "showPoints": "auto",
            "spanNulls": false,
            "stacking": {
              "group": "A",
              "mode": "normal"
            },
            "thresholdsStyle": {
              "mode": "off"
            }
          },
          "mappings": [],
          "thresholds": {
            "mode": "absolute",
            "steps": [
              {
                "color": "green",
                "value": null
              },
              {
                "color": "red",
                "value": 80
              }
            ]
          },
          "unit": "si:"
        },
        "overrides": []
      },
      "gridPos": {
        "h": 12,
        "w": 8,
        "x": 16,
        "y": 3
      },
      "id": 17,
      "options": {
        "legend": {
          "calcs": [
            "max",
            "mean",
            "sum"
          ],
          "displayMode": "table",
          "placement": "bottom"
        },
        "tooltip": {
          "mode": "multi",
          "sort": "desc"
        }
      },
      "targets": [
        {
          "datasource": {
            "type": "mysql",
            "uid": "VGpHWV5Vk"
          },
          "format": "time_series",
          "group": [],
          "hide": false,
          "metricColumn": "none",
          "rawQuery": true,
          "rawSql": "SELECT\n`ac_key_LHCb-Production_Job_FinalMinorStatus`.`value`,\n`ac_bucket_LHCb-Production_Job`.`startTime` AS time,\n-- `ac_bucket_LHCb-Production_Job`.`bucketLength`,\nSUM(`ac_bucket_LHCb-Production_Job`.`entriesInBucket`) / `ac_bucket_LHCb-Production_Job`.`bucketLength` * 3600 AS metric\nFROM\n`ac_bucket_LHCb-Production_Job`,\n`ac_key_LHCb-Production_Job_FinalMajorStatus`,\n`ac_key_LHCb-Production_Job_FinalMinorStatus`\nWHERE $__unixEpochFilter(startTime)\n-- AND `ac_bucket_LHCb-Production_Job`.`startTime` <= 1675868400\nAND ( `ac_key_LHCb-Production_Job_FinalMajorStatus`.`value` = \"Rescheduled\" )\nAND `ac_bucket_LHCb-Production_Job`.`FinalMinorStatus` = `ac_key_LHCb-Production_Job_FinalMinorStatus`.`id`\nAND `ac_bucket_LHCb-Production_Job`.`FinalMajorStatus` = `ac_key_LHCb-Production_Job_FinalMajorStatus`.`id`\nGROUP BY\ntime,\n`ac_key_LHCb-Production_Job_FinalMinorStatus`.Value,\nbucketlength",
          "refId": "A",
          "select": [
            [
              {
                "params": [
                  "endTime"
                ],
                "type": "column"
              }
            ]
          ],
          "table": "ac_in_LHCb-Production_DataOperation",
          "timeColumn": "takenSince",
          "timeColumnType": "timestamp",
          "where": [
            {
              "name": "$__timeFilter",
              "params": [],
              "type": "macro"
            }
          ]
        }
      ],
      "title": "Rescheduled Jobs By Final Minor Status",
      "transformations": [
        {
          "id": "renameByRegex",
          "options": {
            "regex": "metric ",
            "renamePattern": ""
          }
        }
      ],
      "type": "timeseries"
    },
    {
      "datasource": {
        "type": "mysql",
        "uid": "VGpHWV5Vk"
      },
      "fieldConfig": {
        "defaults": {
          "color": {
            "mode": "palette-classic"
          },
          "custom": {
            "axisLabel": "Jobs/hour",
            "axisPlacement": "auto",
            "barAlignment": 0,
            "drawStyle": "line",
            "fillOpacity": 20,
            "gradientMode": "none",
            "hideFrom": {
              "legend": false,
              "tooltip": false,
              "viz": false
            },
            "lineInterpolation": "linear",
            "lineWidth": 1,
            "pointSize": 5,
            "scaleDistribution": {
              "type": "linear"
            },
            "showPoints": "auto",
            "spanNulls": false,
            "stacking": {
              "group": "A",
              "mode": "normal"
            },
            "thresholdsStyle": {
              "mode": "off"
            }
          },
          "mappings": [],
          "thresholds": {
            "mode": "absolute",
            "steps": [
              {
                "color": "green",
                "value": null
              },
              {
                "color": "red",
                "value": 80
              }
            ]
          },
          "unit": "si:"
        },
        "overrides": []
      },
      "gridPos": {
        "h": 12,
        "w": 8,
        "x": 0,
        "y": 15
      },
      "id": 19,
      "options": {
        "legend": {
          "calcs": [
            "max",
            "mean",
            "sum"
          ],
          "displayMode": "table",
          "placement": "bottom",
          "sortBy": "Total",
          "sortDesc": true
        },
        "tooltip": {
          "mode": "multi",
          "sort": "desc"
        }
      },
      "targets": [
        {
          "datasource": {
            "type": "mysql",
            "uid": "VGpHWV5Vk"
          },
          "format": "time_series",
          "group": [],
          "hide": false,
          "metricColumn": "none",
          "rawQuery": true,
          "rawSql": "SELECT\n`ac_key_LHCb-Production_Job_Site`.`value`,\n`ac_bucket_LHCb-Production_Job`.`startTime` AS time,\n-- `ac_bucket_LHCb-Production_Job`.`bucketLength`,\nSUM(`ac_bucket_LHCb-Production_Job`.`entriesInBucket`) / `ac_bucket_LHCb-Production_Job`.`bucketLength` * 3600 AS metric\nFROM\n`ac_bucket_LHCb-Production_Job`,\n`ac_key_LHCb-Production_Job_FinalMajorStatus`,\n`ac_key_LHCb-Production_Job_Site`\nWHERE $__unixEpochFilter(startTime)\n-- AND `ac_bucket_LHCb-Production_Job`.`startTime` <= 1675868400\nAND ( `ac_key_LHCb-Production_Job_FinalMajorStatus`.`value` = \"Failed\" )\nAND `ac_bucket_LHCb-Production_Job`.`Site` = `ac_key_LHCb-Production_Job_Site`.`id`\nAND `ac_bucket_LHCb-Production_Job`.`FinalMajorStatus` = `ac_key_LHCb-Production_Job_FinalMajorStatus`.`id`\nGROUP BY\ntime,\n`ac_key_LHCb-Production_Job_Site`.Value,\nbucketlength",
          "refId": "A",
          "select": [
            [
              {
                "params": [
                  "endTime"
                ],
                "type": "column"
              }
            ]
          ],
          "table": "ac_in_LHCb-Production_DataOperation",
          "timeColumn": "takenSince",
          "timeColumnType": "timestamp",
          "where": [
            {
              "name": "$__timeFilter",
              "params": [],
              "type": "macro"
            }
          ]
        }
      ],
      "title": "Failed Jobs By Site",
      "transformations": [
        {
          "id": "renameByRegex",
          "options": {
            "regex": "metric ",
            "renamePattern": ""
          }
        }
      ],
      "type": "timeseries"
    },
    {
      "datasource": {
        "type": "mysql",
        "uid": "VGpHWV5Vk"
      },
      "fieldConfig": {
        "defaults": {
          "color": {
            "mode": "palette-classic"
          },
          "custom": {
            "axisLabel": "Jobs/hour",
            "axisPlacement": "auto",
            "barAlignment": 0,
            "drawStyle": "line",
            "fillOpacity": 20,
            "gradientMode": "none",
            "hideFrom": {
              "legend": false,
              "tooltip": false,
              "viz": false
            },
            "lineInterpolation": "linear",
            "lineWidth": 1,
            "pointSize": 5,
            "scaleDistribution": {
              "type": "linear"
            },
            "showPoints": "auto",
            "spanNulls": false,
            "stacking": {
              "group": "A",
              "mode": "normal"
            },
            "thresholdsStyle": {
              "mode": "off"
            }
          },
          "mappings": [],
          "thresholds": {
            "mode": "absolute",
            "steps": [
              {
                "color": "green",
                "value": null
              },
              {
                "color": "red",
                "value": 80
              }
            ]
          },
          "unit": "si:"
        },
        "overrides": []
      },
      "gridPos": {
        "h": 12,
        "w": 8,
        "x": 8,
        "y": 15
      },
      "id": 21,
      "options": {
        "legend": {
          "calcs": [
            "max",
            "mean",
            "sum"
          ],
          "displayMode": "table",
          "placement": "bottom",
          "sortBy": "Total",
          "sortDesc": true
        },
        "tooltip": {
          "mode": "multi",
          "sort": "desc"
        }
      },
      "targets": [
        {
          "datasource": {
            "type": "mysql",
            "uid": "VGpHWV5Vk"
          },
          "format": "time_series",
          "group": [],
          "hide": false,
          "metricColumn": "none",
          "rawQuery": true,
          "rawSql": "SELECT\n`ac_key_LHCb-Production_Job_Site`.`value`,\n`ac_bucket_LHCb-Production_Job`.`startTime` AS time,\n-- `ac_bucket_LHCb-Production_Job`.`bucketLength`,\nSUM(`ac_bucket_LHCb-Production_Job`.`entriesInBucket`) / `ac_bucket_LHCb-Production_Job`.`bucketLength` * 3600 AS metric\nFROM\n`ac_bucket_LHCb-Production_Job`,\n`ac_key_LHCb-Production_Job_FinalMajorStatus`,\n`ac_key_LHCb-Production_Job_Site`\nWHERE $__unixEpochFilter(startTime)\n-- AND `ac_bucket_LHCb-Production_Job`.`startTime` <= 1675868400\nAND ( `ac_key_LHCb-Production_Job_FinalMajorStatus`.`value` = \"Completed\" )\nAND `ac_bucket_LHCb-Production_Job`.`Site` = `ac_key_LHCb-Production_Job_Site`.`id`\nAND `ac_bucket_LHCb-Production_Job`.`FinalMajorStatus` = `ac_key_LHCb-Production_Job_FinalMajorStatus`.`id`\nGROUP BY\ntime,\n`ac_key_LHCb-Production_Job_Site`.Value,\nbucketlength",
          "refId": "A",
          "select": [
            [
              {
                "params": [
                  "endTime"
                ],
                "type": "column"
              }
            ]
          ],
          "table": "ac_in_LHCb-Production_DataOperation",
          "timeColumn": "takenSince",
          "timeColumnType": "timestamp",
          "where": [
            {
              "name": "$__timeFilter",
              "params": [],
              "type": "macro"
            }
          ]
        }
      ],
      "title": "Completed Jobs By Site",
      "transformations": [
        {
          "id": "renameByRegex",
          "options": {
            "regex": "metric ",
            "renamePattern": ""
          }
        }
      ],
      "type": "timeseries"
    },
    {
      "datasource": {
        "type": "mysql",
        "uid": "VGpHWV5Vk"
      },
      "fieldConfig": {
        "defaults": {
          "color": {
            "mode": "palette-classic"
          },
          "custom": {
            "axisLabel": "Jobs/hour",
            "axisPlacement": "auto",
            "barAlignment": 0,
            "drawStyle": "line",
            "fillOpacity": 20,
            "gradientMode": "none",
            "hideFrom": {
              "legend": false,
              "tooltip": false,
              "viz": false
            },
            "lineInterpolation": "linear",
            "lineWidth": 1,
            "pointSize": 5,
            "scaleDistribution": {
              "type": "linear"
            },
            "showPoints": "auto",
            "spanNulls": false,
            "stacking": {
              "group": "A",
              "mode": "normal"
            },
            "thresholdsStyle": {
              "mode": "off"
            }
          },
          "mappings": [],
          "noValue": "0",
          "thresholds": {
            "mode": "absolute",
            "steps": [
              {
                "color": "green",
                "value": null
              },
              {
                "color": "red",
                "value": 80
              }
            ]
          },
          "unit": "si:"
        },
        "overrides": []
      },
      "gridPos": {
        "h": 12,
        "w": 8,
        "x": 16,
        "y": 15
      },
      "id": 20,
      "options": {
        "legend": {
          "calcs": [
            "max",
            "mean",
            "sum"
          ],
          "displayMode": "table",
          "placement": "bottom",
          "sortBy": "Total",
          "sortDesc": true
        },
        "tooltip": {
          "mode": "multi",
          "sort": "desc"
        }
      },
      "targets": [
        {
          "datasource": {
            "type": "mysql",
            "uid": "VGpHWV5Vk"
          },
          "format": "time_series",
          "group": [],
          "hide": false,
          "metricColumn": "none",
          "rawQuery": true,
          "rawSql": "SELECT\n`ac_key_LHCb-Production_Job_Site`.`value`,\n`ac_bucket_LHCb-Production_Job`.`startTime` AS time,\n-- `ac_bucket_LHCb-Production_Job`.`bucketLength`,\nSUM(`ac_bucket_LHCb-Production_Job`.`entriesInBucket`) / `ac_bucket_LHCb-Production_Job`.`bucketLength` * 3600 AS metric\nFROM\n`ac_bucket_LHCb-Production_Job`,\n`ac_key_LHCb-Production_Job_FinalMajorStatus`,\n`ac_key_LHCb-Production_Job_Site`\nWHERE $__unixEpochFilter(startTime)\n-- AND `ac_bucket_LHCb-Production_Job`.`startTime` <= 1675868400\nAND ( `ac_key_LHCb-Production_Job_FinalMajorStatus`.`value` = \"Rescheduled\" )\nAND `ac_bucket_LHCb-Production_Job`.`Site` = `ac_key_LHCb-Production_Job_Site`.`id`\nAND `ac_bucket_LHCb-Production_Job`.`FinalMajorStatus` = `ac_key_LHCb-Production_Job_FinalMajorStatus`.`id`\nGROUP BY\ntime,\n`ac_key_LHCb-Production_Job_Site`.Value,\nbucketlength",
          "refId": "A",
          "select": [
            [
              {
                "params": [
                  "endTime"
                ],
                "type": "column"
              }
            ]
          ],
          "table": "ac_in_LHCb-Production_DataOperation",
          "timeColumn": "takenSince",
          "timeColumnType": "timestamp",
          "where": [
            {
              "name": "$__timeFilter",
              "params": [],
              "type": "macro"
            }
          ]
        }
      ],
      "title": "Rescheduled Jobs By Site",
      "transformations": [
        {
          "id": "renameByRegex",
          "options": {
            "regex": "metric ",
            "renamePattern": ""
          }
        }
      ],
      "type": "timeseries"
    },
    {
      "datasource": {
        "type": "mysql",
        "uid": "VGpHWV5Vk"
      },
      "fieldConfig": {
        "defaults": {
          "color": {
            "mode": "palette-classic"
          },
          "custom": {
            "axisLabel": "Jobs/hour",
            "axisPlacement": "auto",
            "barAlignment": 0,
            "drawStyle": "line",
            "fillOpacity": 20,
            "gradientMode": "none",
            "hideFrom": {
              "legend": false,
              "tooltip": false,
              "viz": false
            },
            "lineInterpolation": "linear",
            "lineWidth": 1,
            "pointSize": 5,
            "scaleDistribution": {
              "type": "linear"
            },
            "showPoints": "auto",
            "spanNulls": false,
            "stacking": {
              "group": "A",
              "mode": "normal"
            },
            "thresholdsStyle": {
              "mode": "off"
            }
          },
          "mappings": [],
          "thresholds": {
            "mode": "absolute",
            "steps": [
              {
                "color": "green",
                "value": null
              },
              {
                "color": "red",
                "value": 80
              }
            ]
          },
          "unit": "si:"
        },
        "overrides": []
      },
      "gridPos": {
        "h": 12,
        "w": 8,
        "x": 0,
        "y": 27
      },
      "id": 22,
      "options": {
        "legend": {
          "calcs": [
            "max",
            "mean",
            "sum"
          ],
          "displayMode": "table",
          "placement": "bottom",
          "sortBy": "Total",
          "sortDesc": true
        },
        "tooltip": {
          "mode": "multi",
          "sort": "desc"
        }
      },
      "targets": [
        {
          "datasource": {
            "type": "mysql",
            "uid": "VGpHWV5Vk"
          },
          "format": "time_series",
          "group": [],
          "hide": false,
          "metricColumn": "none",
          "rawQuery": true,
          "rawSql": "SELECT\n`ac_key_LHCb-Production_Job_JobGroup`.`value`,\n`ac_bucket_LHCb-Production_Job`.`startTime` AS time,\n-- `ac_bucket_LHCb-Production_Job`.`bucketLength`,\nSUM(`ac_bucket_LHCb-Production_Job`.`entriesInBucket`) / `ac_bucket_LHCb-Production_Job`.`bucketLength` * 3600 AS metric\nFROM\n`ac_bucket_LHCb-Production_Job`,\n`ac_key_LHCb-Production_Job_FinalMajorStatus`,\n`ac_key_LHCb-Production_Job_JobGroup`\nWHERE $__unixEpochFilter(startTime)\n-- AND `ac_bucket_LHCb-Production_Job`.`startTime` <= 1675868400\nAND ( `ac_key_LHCb-Production_Job_FinalMajorStatus`.`value` = \"Failed\" )\nAND `ac_bucket_LHCb-Production_Job`.`JobGroup` = `ac_key_LHCb-Production_Job_JobGroup`.`id`\nAND `ac_bucket_LHCb-Production_Job`.`FinalMajorStatus` = `ac_key_LHCb-Production_Job_FinalMajorStatus`.`id`\nGROUP BY\ntime,\n`ac_key_LHCb-Production_Job_JobGroup`.Value,\nbucketlength",
          "refId": "A",
          "select": [
            [
              {
                "params": [
                  "endTime"
                ],
                "type": "column"
              }
            ]
          ],
          "table": "ac_in_LHCb-Production_DataOperation",
          "timeColumn": "takenSince",
          "timeColumnType": "timestamp",
          "where": [
            {
              "name": "$__timeFilter",
              "params": [],
              "type": "macro"
            }
          ]
        }
      ],
      "title": "Failed Jobs By Job Group",
      "transformations": [
        {
          "id": "renameByRegex",
          "options": {
            "regex": "metric ",
            "renamePattern": ""
          }
        }
      ],
      "type": "timeseries"
    },
    {
      "datasource": {
        "type": "mysql",
        "uid": "VGpHWV5Vk"
      },
      "fieldConfig": {
        "defaults": {
          "color": {
            "mode": "palette-classic"
          },
          "custom": {
            "axisLabel": "Jobs/hour",
            "axisPlacement": "auto",
            "barAlignment": 0,
            "drawStyle": "line",
            "fillOpacity": 20,
            "gradientMode": "none",
            "hideFrom": {
              "legend": false,
              "tooltip": false,
              "viz": false
            },
            "lineInterpolation": "linear",
            "lineWidth": 1,
            "pointSize": 5,
            "scaleDistribution": {
              "type": "linear"
            },
            "showPoints": "auto",
            "spanNulls": false,
            "stacking": {
              "group": "A",
              "mode": "normal"
            },
            "thresholdsStyle": {
              "mode": "off"
            }
          },
          "mappings": [],
          "thresholds": {
            "mode": "absolute",
            "steps": [
              {
                "color": "green",
                "value": null
              },
              {
                "color": "red",
                "value": 80
              }
            ]
          },
          "unit": "si:"
        },
        "overrides": []
      },
      "gridPos": {
        "h": 12,
        "w": 8,
        "x": 8,
        "y": 27
      },
      "id": 23,
      "options": {
        "legend": {
          "calcs": [
            "max",
            "mean",
            "sum"
          ],
          "displayMode": "table",
          "placement": "bottom",
          "sortBy": "Total",
          "sortDesc": true
        },
        "tooltip": {
          "mode": "multi",
          "sort": "desc"
        }
      },
      "targets": [
        {
          "datasource": {
            "type": "mysql",
            "uid": "VGpHWV5Vk"
          },
          "format": "time_series",
          "group": [],
          "hide": false,
          "metricColumn": "none",
          "rawQuery": true,
          "rawSql": "SELECT\n`ac_key_LHCb-Production_Job_JobGroup`.`value`,\n`ac_bucket_LHCb-Production_Job`.`startTime` AS time,\n-- `ac_bucket_LHCb-Production_Job`.`bucketLength`,\nSUM(`ac_bucket_LHCb-Production_Job`.`entriesInBucket`) / `ac_bucket_LHCb-Production_Job`.`bucketLength` * 3600 AS metric\nFROM\n`ac_bucket_LHCb-Production_Job`,\n`ac_key_LHCb-Production_Job_FinalMajorStatus`,\n`ac_key_LHCb-Production_Job_JobGroup`\nWHERE $__unixEpochFilter(startTime)\n-- AND `ac_bucket_LHCb-Production_Job`.`startTime` <= 1675868400\nAND ( `ac_key_LHCb-Production_Job_FinalMajorStatus`.`value` = \"Completed\" )\nAND `ac_bucket_LHCb-Production_Job`.`JobGroup` = `ac_key_LHCb-Production_Job_JobGroup`.`id`\nAND `ac_bucket_LHCb-Production_Job`.`FinalMajorStatus` = `ac_key_LHCb-Production_Job_FinalMajorStatus`.`id`\nGROUP BY\ntime,\n`ac_key_LHCb-Production_Job_JobGroup`.Value,\nbucketlength",
          "refId": "A",
          "select": [
            [
              {
                "params": [
                  "endTime"
                ],
                "type": "column"
              }
            ]
          ],
          "table": "ac_in_LHCb-Production_DataOperation",
          "timeColumn": "takenSince",
          "timeColumnType": "timestamp",
          "where": [
            {
              "name": "$__timeFilter",
              "params": [],
              "type": "macro"
            }
          ]
        }
      ],
      "title": "Completed Jobs By Job Group",
      "transformations": [
        {
          "id": "renameByRegex",
          "options": {
            "regex": "metric ",
            "renamePattern": ""
          }
        }
      ],
      "type": "timeseries"
    },
    {
      "datasource": {
        "type": "mysql",
        "uid": "VGpHWV5Vk"
      },
      "fieldConfig": {
        "defaults": {
          "color": {
            "mode": "palette-classic"
          },
          "custom": {
            "axisLabel": "Jobs/hour",
            "axisPlacement": "auto",
            "barAlignment": 0,
            "drawStyle": "line",
            "fillOpacity": 20,
            "gradientMode": "none",
            "hideFrom": {
              "legend": false,
              "tooltip": false,
              "viz": false
            },
            "lineInterpolation": "linear",
            "lineWidth": 1,
            "pointSize": 5,
            "scaleDistribution": {
              "type": "linear"
            },
            "showPoints": "auto",
            "spanNulls": false,
            "stacking": {
              "group": "A",
              "mode": "normal"
            },
            "thresholdsStyle": {
              "mode": "off"
            }
          },
          "mappings": [],
          "thresholds": {
            "mode": "absolute",
            "steps": [
              {
                "color": "green",
                "value": null
              },
              {
                "color": "red",
                "value": 80
              }
            ]
          },
          "unit": "si:"
        },
        "overrides": []
      },
      "gridPos": {
        "h": 12,
        "w": 8,
        "x": 16,
        "y": 27
      },
      "id": 24,
      "options": {
        "legend": {
          "calcs": [
            "max",
            "mean",
            "sum"
          ],
          "displayMode": "table",
          "placement": "bottom",
          "sortBy": "Total",
          "sortDesc": true
        },
        "tooltip": {
          "mode": "multi",
          "sort": "desc"
        }
      },
      "targets": [
        {
          "datasource": {
            "type": "mysql",
            "uid": "VGpHWV5Vk"
          },
          "format": "time_series",
          "group": [],
          "hide": false,
          "metricColumn": "none",
          "rawQuery": true,
          "rawSql": "SELECT\n`ac_key_LHCb-Production_Job_JobGroup`.`value`,\n`ac_bucket_LHCb-Production_Job`.`startTime` AS time,\n-- `ac_bucket_LHCb-Production_Job`.`bucketLength`,\nSUM(`ac_bucket_LHCb-Production_Job`.`entriesInBucket`) / `ac_bucket_LHCb-Production_Job`.`bucketLength` * 3600 AS metric\nFROM\n`ac_bucket_LHCb-Production_Job`,\n`ac_key_LHCb-Production_Job_FinalMajorStatus`,\n`ac_key_LHCb-Production_Job_JobGroup`\nWHERE $__unixEpochFilter(startTime)\n-- AND `ac_bucket_LHCb-Production_Job`.`startTime` <= 1675868400\nAND ( `ac_key_LHCb-Production_Job_FinalMajorStatus`.`value` = \"Rescheduled\" )\nAND `ac_bucket_LHCb-Production_Job`.`JobGroup` = `ac_key_LHCb-Production_Job_JobGroup`.`id`\nAND `ac_bucket_LHCb-Production_Job`.`FinalMajorStatus` = `ac_key_LHCb-Production_Job_FinalMajorStatus`.`id`\nGROUP BY\ntime,\n`ac_key_LHCb-Production_Job_JobGroup`.Value,\nbucketlength",
          "refId": "A",
          "select": [
            [
              {
                "params": [
                  "endTime"
                ],
                "type": "column"
              }
            ]
          ],
          "table": "ac_in_LHCb-Production_DataOperation",
          "timeColumn": "takenSince",
          "timeColumnType": "timestamp",
          "where": [
            {
              "name": "$__timeFilter",
              "params": [],
              "type": "macro"
            }
          ]
        }
      ],
      "title": "Rescheduled Jobs By Job Group",
      "transformations": [
        {
          "id": "renameByRegex",
          "options": {
            "regex": "metric ",
            "renamePattern": ""
          }
        }
      ],
      "type": "timeseries"
    },
    {
      "datasource": {
        "type": "mysql",
        "uid": "VGpHWV5Vk"
      },
      "fieldConfig": {
        "defaults": {
          "color": {
            "mode": "palette-classic"
          },
          "custom": {
            "axisLabel": "Jobs/hour",
            "axisPlacement": "auto",
            "barAlignment": 0,
            "drawStyle": "line",
            "fillOpacity": 20,
            "gradientMode": "none",
            "hideFrom": {
              "legend": false,
              "tooltip": false,
              "viz": false
            },
            "lineInterpolation": "linear",
            "lineWidth": 1,
            "pointSize": 5,
            "scaleDistribution": {
              "type": "linear"
            },
            "showPoints": "auto",
            "spanNulls": false,
            "stacking": {
              "group": "A",
              "mode": "normal"
            },
            "thresholdsStyle": {
              "mode": "off"
            }
          },
          "mappings": [],
          "thresholds": {
            "mode": "absolute",
            "steps": [
              {
                "color": "green",
                "value": null
              },
              {
                "color": "red",
                "value": 80
              }
            ]
          },
          "unit": "si:"
        },
        "overrides": []
      },
      "gridPos": {
        "h": 12,
        "w": 8,
        "x": 0,
        "y": 39
      },
      "id": 25,
      "options": {
        "legend": {
          "calcs": [
            "max",
            "mean",
            "sum"
          ],
          "displayMode": "table",
          "placement": "bottom",
          "sortBy": "Total",
          "sortDesc": true
        },
        "tooltip": {
          "mode": "multi",
          "sort": "desc"
        }
      },
      "targets": [
        {
          "datasource": {
            "type": "mysql",
            "uid": "VGpHWV5Vk"
          },
          "format": "time_series",
          "group": [],
          "hide": false,
          "metricColumn": "none",
          "rawQuery": true,
          "rawSql": "SELECT\n`ac_key_LHCb-Production_Job_JobType`.`value`,\n`ac_bucket_LHCb-Production_Job`.`startTime` AS time,\n-- `ac_bucket_LHCb-Production_Job`.`bucketLength`,\nSUM(`ac_bucket_LHCb-Production_Job`.`entriesInBucket`) / `ac_bucket_LHCb-Production_Job`.`bucketLength` * 3600 AS metric\nFROM\n`ac_bucket_LHCb-Production_Job`,\n`ac_key_LHCb-Production_Job_FinalMajorStatus`,\n`ac_key_LHCb-Production_Job_JobType`\nWHERE $__unixEpochFilter(startTime)\n-- AND `ac_bucket_LHCb-Production_Job`.`startTime` <= 1675868400\nAND ( `ac_key_LHCb-Production_Job_FinalMajorStatus`.`value` = \"Failed\" )\nAND `ac_bucket_LHCb-Production_Job`.`JobType` = `ac_key_LHCb-Production_Job_JobType`.`id`\nAND `ac_bucket_LHCb-Production_Job`.`FinalMajorStatus` = `ac_key_LHCb-Production_Job_FinalMajorStatus`.`id`\nGROUP BY\ntime,\n`ac_key_LHCb-Production_Job_JobType`.Value,\nbucketlength",
          "refId": "A",
          "select": [
            [
              {
                "params": [
                  "endTime"
                ],
                "type": "column"
              }
            ]
          ],
          "table": "ac_in_LHCb-Production_DataOperation",
          "timeColumn": "takenSince",
          "timeColumnType": "timestamp",
          "where": [
            {
              "name": "$__timeFilter",
              "params": [],
              "type": "macro"
            }
          ]
        }
      ],
      "title": "Failed Jobs By Job Type",
      "transformations": [
        {
          "id": "renameByRegex",
          "options": {
            "regex": "metric ",
            "renamePattern": ""
          }
        }
      ],
      "type": "timeseries"
    },
    {
      "datasource": {
        "type": "mysql",
        "uid": "VGpHWV5Vk"
      },
      "fieldConfig": {
        "defaults": {
          "color": {
            "mode": "palette-classic"
          },
          "custom": {
            "axisLabel": "Jobs/hour",
            "axisPlacement": "auto",
            "barAlignment": 0,
            "drawStyle": "line",
            "fillOpacity": 20,
            "gradientMode": "none",
            "hideFrom": {
              "legend": false,
              "tooltip": false,
              "viz": false
            },
            "lineInterpolation": "linear",
            "lineWidth": 1,
            "pointSize": 5,
            "scaleDistribution": {
              "type": "linear"
            },
            "showPoints": "auto",
            "spanNulls": false,
            "stacking": {
              "group": "A",
              "mode": "normal"
            },
            "thresholdsStyle": {
              "mode": "off"
            }
          },
          "mappings": [],
          "thresholds": {
            "mode": "absolute",
            "steps": [
              {
                "color": "green",
                "value": null
              },
              {
                "color": "red",
                "value": 80
              }
            ]
          },
          "unit": "si:"
        },
        "overrides": []
      },
      "gridPos": {
        "h": 12,
        "w": 8,
        "x": 8,
        "y": 39
      },
      "id": 26,
      "options": {
        "legend": {
          "calcs": [
            "max",
            "mean",
            "sum"
          ],
          "displayMode": "table",
          "placement": "bottom",
          "sortBy": "Total",
          "sortDesc": true
        },
        "tooltip": {
          "mode": "multi",
          "sort": "desc"
        }
      },
      "targets": [
        {
          "datasource": {
            "type": "mysql",
            "uid": "VGpHWV5Vk"
          },
          "format": "time_series",
          "group": [],
          "hide": false,
          "metricColumn": "none",
          "rawQuery": true,
          "rawSql": "SELECT\n`ac_key_LHCb-Production_Job_JobType`.`value`,\n`ac_bucket_LHCb-Production_Job`.`startTime` AS time,\n-- `ac_bucket_LHCb-Production_Job`.`bucketLength`,\nSUM(`ac_bucket_LHCb-Production_Job`.`entriesInBucket`) / `ac_bucket_LHCb-Production_Job`.`bucketLength` * 3600 AS metric\nFROM\n`ac_bucket_LHCb-Production_Job`,\n`ac_key_LHCb-Production_Job_FinalMajorStatus`,\n`ac_key_LHCb-Production_Job_JobType`\nWHERE $__unixEpochFilter(startTime)\n-- AND `ac_bucket_LHCb-Production_Job`.`startTime` <= 1675868400\nAND ( `ac_key_LHCb-Production_Job_FinalMajorStatus`.`value` = \"Completed\" )\nAND `ac_bucket_LHCb-Production_Job`.`JobType` = `ac_key_LHCb-Production_Job_JobType`.`id`\nAND `ac_bucket_LHCb-Production_Job`.`FinalMajorStatus` = `ac_key_LHCb-Production_Job_FinalMajorStatus`.`id`\nGROUP BY\ntime,\n`ac_key_LHCb-Production_Job_JobType`.Value,\nbucketlength",
          "refId": "A",
          "select": [
            [
              {
                "params": [
                  "endTime"
                ],
                "type": "column"
              }
            ]
          ],
          "table": "ac_in_LHCb-Production_DataOperation",
          "timeColumn": "takenSince",
          "timeColumnType": "timestamp",
          "where": [
            {
              "name": "$__timeFilter",
              "params": [],
              "type": "macro"
            }
          ]
        }
      ],
      "title": "Completed Jobs By Job Type",
      "transformations": [
        {
          "id": "renameByRegex",
          "options": {
            "regex": "metric ",
            "renamePattern": ""
          }
        }
      ],
      "type": "timeseries"
    },
    {
      "datasource": {
        "type": "mysql",
        "uid": "VGpHWV5Vk"
      },
      "fieldConfig": {
        "defaults": {
          "color": {
            "mode": "palette-classic"
          },
          "custom": {
            "axisLabel": "Jobs/hour",
            "axisPlacement": "auto",
            "barAlignment": 0,
            "drawStyle": "line",
            "fillOpacity": 20,
            "gradientMode": "none",
            "hideFrom": {
              "legend": false,
              "tooltip": false,
              "viz": false
            },
            "lineInterpolation": "linear",
            "lineWidth": 1,
            "pointSize": 5,
            "scaleDistribution": {
              "type": "linear"
            },
            "showPoints": "auto",
            "spanNulls": false,
            "stacking": {
              "group": "A",
              "mode": "normal"
            },
            "thresholdsStyle": {
              "mode": "off"
            }
          },
          "mappings": [],
          "thresholds": {
            "mode": "absolute",
            "steps": [
              {
                "color": "green",
                "value": null
              },
              {
                "color": "red",
                "value": 80
              }
            ]
          },
          "unit": "si:"
        },
        "overrides": []
      },
      "gridPos": {
        "h": 12,
        "w": 8,
        "x": 16,
        "y": 39
      },
      "id": 27,
      "options": {
        "legend": {
          "calcs": [
            "max",
            "mean",
            "sum"
          ],
          "displayMode": "table",
          "placement": "bottom",
          "sortBy": "Total",
          "sortDesc": true
        },
        "tooltip": {
          "mode": "multi",
          "sort": "desc"
        }
      },
      "targets": [
        {
          "datasource": {
            "type": "mysql",
            "uid": "VGpHWV5Vk"
          },
          "format": "time_series",
          "group": [],
          "hide": false,
          "metricColumn": "none",
          "rawQuery": true,
          "rawSql": "SELECT\n`ac_key_LHCb-Production_Job_JobType`.`value`,\n`ac_bucket_LHCb-Production_Job`.`startTime` AS time,\n-- `ac_bucket_LHCb-Production_Job`.`bucketLength`,\nSUM(`ac_bucket_LHCb-Production_Job`.`entriesInBucket`) / `ac_bucket_LHCb-Production_Job`.`bucketLength` * 3600 AS metric\nFROM\n`ac_bucket_LHCb-Production_Job`,\n`ac_key_LHCb-Production_Job_FinalMajorStatus`,\n`ac_key_LHCb-Production_Job_JobType`\nWHERE $__unixEpochFilter(startTime)\n-- AND `ac_bucket_LHCb-Production_Job`.`startTime` <= 1675868400\nAND ( `ac_key_LHCb-Production_Job_FinalMajorStatus`.`value` = \"Rescheduled\" )\nAND `ac_bucket_LHCb-Production_Job`.`JobType` = `ac_key_LHCb-Production_Job_JobType`.`id`\nAND `ac_bucket_LHCb-Production_Job`.`FinalMajorStatus` = `ac_key_LHCb-Production_Job_FinalMajorStatus`.`id`\nGROUP BY\ntime,\n`ac_key_LHCb-Production_Job_JobType`.Value,\nbucketlength",
          "refId": "A",
          "select": [
            [
              {
                "params": [
                  "endTime"
                ],
                "type": "column"
              }
            ]
          ],
          "table": "ac_in_LHCb-Production_DataOperation",
          "timeColumn": "takenSince",
          "timeColumnType": "timestamp",
          "where": [
            {
              "name": "$__timeFilter",
              "params": [],
              "type": "macro"
            }
          ]
        }
      ],
      "title": "Rescheduled Jobs By Job Type",
      "transformations": [
        {
          "id": "renameByRegex",
          "options": {
            "regex": "metric ",
            "renamePattern": ""
          }
        }
      ],
      "type": "timeseries"
    },
    {
      "datasource": {
        "type": "mysql",
        "uid": "VGpHWV5Vk"
      },
      "fieldConfig": {
        "defaults": {
          "color": {
            "mode": "palette-classic"
          },
          "custom": {
            "axisLabel": "Jobs/hour",
            "axisPlacement": "auto",
            "barAlignment": 0,
            "drawStyle": "line",
            "fillOpacity": 20,
            "gradientMode": "none",
            "hideFrom": {
              "legend": false,
              "tooltip": false,
              "viz": false
            },
            "lineInterpolation": "linear",
            "lineWidth": 1,
            "pointSize": 5,
            "scaleDistribution": {
              "type": "linear"
            },
            "showPoints": "auto",
            "spanNulls": false,
            "stacking": {
              "group": "A",
              "mode": "normal"
            },
            "thresholdsStyle": {
              "mode": "off"
            }
          },
          "mappings": [],
          "thresholds": {
            "mode": "absolute",
            "steps": [
              {
                "color": "green",
                "value": null
              },
              {
                "color": "red",
                "value": 80
              }
            ]
          },
          "unit": "si:"
        },
        "overrides": []
      },
      "gridPos": {
        "h": 12,
        "w": 8,
        "x": 0,
        "y": 51
      },
      "id": 28,
      "options": {
        "legend": {
          "calcs": [
            "max",
            "mean",
            "sum"
          ],
          "displayMode": "table",
          "placement": "bottom",
          "sortBy": "Total",
          "sortDesc": true
        },
        "tooltip": {
          "mode": "multi",
          "sort": "desc"
        }
      },
      "targets": [
        {
          "datasource": {
            "type": "mysql",
            "uid": "VGpHWV5Vk"
          },
          "format": "time_series",
          "group": [],
          "hide": false,
          "metricColumn": "none",
          "rawQuery": true,
          "rawSql": "SELECT\n`ac_key_LHCb-Production_Job_User`.`value`,\n`ac_bucket_LHCb-Production_Job`.`startTime` AS time,\n-- `ac_bucket_LHCb-Production_Job`.`bucketLength`,\nSUM(`ac_bucket_LHCb-Production_Job`.`entriesInBucket`) / `ac_bucket_LHCb-Production_Job`.`bucketLength` * 3600 AS metric\nFROM\n`ac_bucket_LHCb-Production_Job`,\n`ac_key_LHCb-Production_Job_FinalMajorStatus`,\n`ac_key_LHCb-Production_Job_User`\nWHERE $__unixEpochFilter(startTime)\n-- AND `ac_bucket_LHCb-Production_Job`.`startTime` <= 1675868400\nAND ( `ac_key_LHCb-Production_Job_FinalMajorStatus`.`value` = \"Failed\" )\nAND `ac_bucket_LHCb-Production_Job`.`User` = `ac_key_LHCb-Production_Job_User`.`id`\nAND `ac_bucket_LHCb-Production_Job`.`FinalMajorStatus` = `ac_key_LHCb-Production_Job_FinalMajorStatus`.`id`\nGROUP BY\ntime,\n`ac_key_LHCb-Production_Job_User`.Value,\nbucketlength",
          "refId": "A",
          "select": [
            [
              {
                "params": [
                  "endTime"
                ],
                "type": "column"
              }
            ]
          ],
          "table": "ac_in_LHCb-Production_DataOperation",
          "timeColumn": "takenSince",
          "timeColumnType": "timestamp",
          "where": [
            {
              "name": "$__timeFilter",
              "params": [],
              "type": "macro"
            }
          ]
        }
      ],
      "title": "Failed Jobs By User",
      "transformations": [
        {
          "id": "renameByRegex",
          "options": {
            "regex": "metric ",
            "renamePattern": ""
          }
        }
      ],
      "type": "timeseries"
    },
    {
      "datasource": {
        "type": "mysql",
        "uid": "VGpHWV5Vk"
      },
      "fieldConfig": {
        "defaults": {
          "color": {
            "mode": "palette-classic"
          },
          "custom": {
            "axisLabel": "Jobs/hour",
            "axisPlacement": "auto",
            "barAlignment": 0,
            "drawStyle": "line",
            "fillOpacity": 20,
            "gradientMode": "none",
            "hideFrom": {
              "legend": false,
              "tooltip": false,
              "viz": false
            },
            "lineInterpolation": "linear",
            "lineWidth": 1,
            "pointSize": 5,
            "scaleDistribution": {
              "type": "linear"
            },
            "showPoints": "auto",
            "spanNulls": false,
            "stacking": {
              "group": "A",
              "mode": "normal"
            },
            "thresholdsStyle": {
              "mode": "off"
            }
          },
          "mappings": [],
          "thresholds": {
            "mode": "absolute",
            "steps": [
              {
                "color": "green",
                "value": null
              },
              {
                "color": "red",
                "value": 80
              }
            ]
          },
          "unit": "si:"
        },
        "overrides": []
      },
      "gridPos": {
        "h": 12,
        "w": 8,
        "x": 8,
        "y": 51
      },
      "id": 29,
      "options": {
        "legend": {
          "calcs": [
            "max",
            "mean",
            "sum"
          ],
          "displayMode": "table",
          "placement": "bottom",
          "sortBy": "Total",
          "sortDesc": true
        },
        "tooltip": {
          "mode": "multi",
          "sort": "desc"
        }
      },
      "targets": [
        {
          "datasource": {
            "type": "mysql",
            "uid": "VGpHWV5Vk"
          },
          "format": "time_series",
          "group": [],
          "hide": false,
          "metricColumn": "none",
          "rawQuery": true,
          "rawSql": "SELECT\n`ac_key_LHCb-Production_Job_User`.`value`,\n`ac_bucket_LHCb-Production_Job`.`startTime` AS time,\n-- `ac_bucket_LHCb-Production_Job`.`bucketLength`,\nSUM(`ac_bucket_LHCb-Production_Job`.`entriesInBucket`) / `ac_bucket_LHCb-Production_Job`.`bucketLength` * 3600 AS metric\nFROM\n`ac_bucket_LHCb-Production_Job`,\n`ac_key_LHCb-Production_Job_FinalMajorStatus`,\n`ac_key_LHCb-Production_Job_User`\nWHERE $__unixEpochFilter(startTime)\n-- AND `ac_bucket_LHCb-Production_Job`.`startTime` <= 1675868400\nAND ( `ac_key_LHCb-Production_Job_FinalMajorStatus`.`value` = \"Completed\" )\nAND `ac_bucket_LHCb-Production_Job`.`User` = `ac_key_LHCb-Production_Job_User`.`id`\nAND `ac_bucket_LHCb-Production_Job`.`FinalMajorStatus` = `ac_key_LHCb-Production_Job_FinalMajorStatus`.`id`\nGROUP BY\ntime,\n`ac_key_LHCb-Production_Job_User`.Value,\nbucketlength",
          "refId": "A",
          "select": [
            [
              {
                "params": [
                  "endTime"
                ],
                "type": "column"
              }
            ]
          ],
          "table": "ac_in_LHCb-Production_DataOperation",
          "timeColumn": "takenSince",
          "timeColumnType": "timestamp",
          "where": [
            {
              "name": "$__timeFilter",
              "params": [],
              "type": "macro"
            }
          ]
        }
      ],
      "title": "Completed Jobs By User",
      "transformations": [
        {
          "id": "renameByRegex",
          "options": {
            "regex": "metric ",
            "renamePattern": ""
          }
        }
      ],
      "type": "timeseries"
    },
    {
      "datasource": {
        "type": "mysql",
        "uid": "VGpHWV5Vk"
      },
      "fieldConfig": {
        "defaults": {
          "color": {
            "mode": "palette-classic"
          },
          "custom": {
            "axisLabel": "Jobs/hour",
            "axisPlacement": "auto",
            "barAlignment": 0,
            "drawStyle": "line",
            "fillOpacity": 20,
            "gradientMode": "none",
            "hideFrom": {
              "legend": false,
              "tooltip": false,
              "viz": false
            },
            "lineInterpolation": "linear",
            "lineWidth": 1,
            "pointSize": 5,
            "scaleDistribution": {
              "type": "linear"
            },
            "showPoints": "auto",
            "spanNulls": false,
            "stacking": {
              "group": "A",
              "mode": "normal"
            },
            "thresholdsStyle": {
              "mode": "off"
            }
          },
          "mappings": [],
          "thresholds": {
            "mode": "absolute",
            "steps": [
              {
                "color": "green",
                "value": null
              },
              {
                "color": "red",
                "value": 80
              }
            ]
          },
          "unit": "si:"
        },
        "overrides": []
      },
      "gridPos": {
        "h": 12,
        "w": 8,
        "x": 16,
        "y": 51
      },
      "id": 30,
      "options": {
        "legend": {
          "calcs": [
            "max",
            "mean",
            "sum"
          ],
          "displayMode": "table",
          "placement": "bottom",
          "sortBy": "Total",
          "sortDesc": true
        },
        "tooltip": {
          "mode": "multi",
          "sort": "desc"
        }
      },
      "targets": [
        {
          "datasource": {
            "type": "mysql",
            "uid": "VGpHWV5Vk"
          },
          "format": "time_series",
          "group": [],
          "hide": false,
          "metricColumn": "none",
          "rawQuery": true,
          "rawSql": "SELECT\n`ac_key_LHCb-Production_Job_User`.`value`,\n`ac_bucket_LHCb-Production_Job`.`startTime` AS time,\n-- `ac_bucket_LHCb-Production_Job`.`bucketLength`,\nSUM(`ac_bucket_LHCb-Production_Job`.`entriesInBucket`) / `ac_bucket_LHCb-Production_Job`.`bucketLength` * 3600 AS metric\nFROM\n`ac_bucket_LHCb-Production_Job`,\n`ac_key_LHCb-Production_Job_FinalMajorStatus`,\n`ac_key_LHCb-Production_Job_User`\nWHERE $__unixEpochFilter(startTime)\n-- AND `ac_bucket_LHCb-Production_Job`.`startTime` <= 1675868400\nAND ( `ac_key_LHCb-Production_Job_FinalMajorStatus`.`value` = \"Rescheduled\" )\nAND `ac_bucket_LHCb-Production_Job`.`User` = `ac_key_LHCb-Production_Job_User`.`id`\nAND `ac_bucket_LHCb-Production_Job`.`FinalMajorStatus` = `ac_key_LHCb-Production_Job_FinalMajorStatus`.`id`\nGROUP BY\ntime,\n`ac_key_LHCb-Production_Job_User`.Value,\nbucketlength",
          "refId": "A",
          "select": [
            [
              {
                "params": [
                  "endTime"
                ],
                "type": "column"
              }
            ]
          ],
          "table": "ac_in_LHCb-Production_DataOperation",
          "timeColumn": "takenSince",
          "timeColumnType": "timestamp",
          "where": [
            {
              "name": "$__timeFilter",
              "params": [],
              "type": "macro"
            }
          ]
        }
      ],
      "title": "Rescheduled Jobs By User",
      "transformations": [
        {
          "id": "renameByRegex",
          "options": {
            "regex": "metric ",
            "renamePattern": ""
          }
        }
      ],
      "type": "timeseries"
    }
  ],
  "refresh": false,
  "schemaVersion": 36,
  "style": "dark",
  "tags": [],
  "templating": {
    "list": []
  },
  "time": {
    "from": "now-26h",
    "to": "now"
  },
  "timepicker": {},
  "timezone": "utc",
  "title": "Job Debugging",
  "uid": "cQt42uAVk",
  "version": 13,
  "weekStart": ""
}
